{
<Svg
  width="24"
  height="24"
  viewBox="0 0 24 24"
>
  <path
    d="M16 10.975v13.025l-6-5.269-6 5.269v-24h6.816c-1.123 1.168-1.816 2.752-1.816 4.5 0 3.736 3.162 6.768 7 6.475zm4-6.475c0 2.485-2.018 4.5-4.5 4.5-2.484 0-4.5-2.015-4.5-4.5s2.016-4.5 4.5-4.5c2.482 0 4.5 2.015 4.5 4.5zm-2-.5h-2v-2h-1v2h-2v1h2v2h1v-2h2v-1z"
    fill='yellow'
  />

</svg>
}
